<?xml version="1.0" encoding="UTF-8"?>
<svg width="120px" height="120px" viewBox="0 0 120 120" version="1.1" xmlns="http://www.w3.org/2000/svg" xmlns:xlink="http://www.w3.org/1999/xlink">
    <!-- Generator: Sketch 63 (92445) - https://sketch.com -->
    <title>Group</title>
    <desc>Created with Sketch.</desc>
    <g id="Page-1" stroke="none" stroke-width="1" fill="none" fill-rule="evenodd">
        <g id="about-pcc-1.0" transform="translate(-851.000000, -532.000000)">
            <g id="Group" transform="translate(851.000000, 532.000000)">
                <rect id="Rectangle" fill="#004C98" x="0" y="0" width="120" height="120"></rect>
                <g id="multimedia-option" transform="translate(47.000000, 45.000000)" fill="#FFFFFF" fill-rule="nonzero">
                    <polygon id="Path" points="1.70530257e-13 2.84217094e-14 26 15 1.70965724e-13 30"></polygon>
                </g>
            </g>
        </g>
    </g>
</svg>